=================================================
01
=================================================
<<HTML_01-02 / 01-03>>
・JQのプラグインの記述が残っているが、不要のため削除をお願いします



=================================================
02,06
=================================================
<<HTML>>
・JQのプラグインの記述が残っているが、不要のため削除をお願いします


